testL297/simulation/qsim/L297.msim.vcd
$comment
	File created using the following command:
		vcd file L297.msim.vcd -direction
$end
$date
	Mon Oct 12 14:24:01 2015
$end
$version
	ModelSim Version 10.1d
$end
$timescale
	1ps
$end
$scope module test297_vlg_vec_tst $end
$var reg 1 ! clk $end
$var wire 1 " slow_clk $end
$var wire 1 # sampler $end
$scope module i1 $end
$var wire 1 $ gnd $end
$var wire 1 % vcc $end
$var wire 1 & unknown $end
$var tri1 1 ' devclrn $end
$var tri1 1 ( devpor $end
$var tri1 1 ) devoe $end
$var wire 1 * Add0~0_combout $end
$var wire 1 + Add0~2_combout $end
$var wire 1 , Add0~10_combout $end
$var wire 1 - Add0~12_combout $end
$var wire 1 . Add0~22_combout $end
$var wire 1 / Add0~26_combout $end
$var wire 1 0 Add0~30_combout $end
$var wire 1 1 Add0~42_combout $end
$var wire 1 2 Add0~44_combout $end
$var wire 1 3 Add0~58_combout $end
$var wire 1 4 Equal0~0_combout $end
$var wire 1 5 Equal0~1_combout $end
$var wire 1 6 Equal0~2_combout $end
$var wire 1 7 Equal0~3_combout $end
$var wire 1 8 Equal0~4_combout $end
$var wire 1 9 count~0_combout $end
$var wire 1 : slow_clk~output_o $end
$var wire 1 ; clk~input_o $end
$var wire 1 < clk~inputclkctrl_outclk $end
$var wire 1 = count~2_combout $end
$var wire 1 > Add0~1 $end
$var wire 1 ? Add0~3 $end
$var wire 1 @ Add0~4_combout $end
$var wire 1 A Add0~5 $end
$var wire 1 B Add0~6_combout $end
$var wire 1 C count~1_combout $end
$var wire 1 D Add0~7 $end
$var wire 1 E Add0~8_combout $end
$var wire 1 F Add0~9 $end
$var wire 1 G Add0~11 $end
$var wire 1 H Add0~13 $end
$var wire 1 I Add0~14_combout $end
$var wire 1 J Add0~15 $end
$var wire 1 K Add0~16_combout $end
$var wire 1 L Add0~17 $end
$var wire 1 M Add0~18_combout $end
$var wire 1 N Add0~19 $end
$var wire 1 O Add0~20_combout $end
$var wire 1 P Add0~21 $end
$var wire 1 Q Add0~23 $end
$var wire 1 R Add0~24_combout $end
$var wire 1 S Add0~25 $end
$var wire 1 T Add0~27 $end
$var wire 1 U Add0~28_combout $end
$var wire 1 V Add0~29 $end
$var wire 1 W Add0~31 $end
$var wire 1 X Add0~32_combout $end
$var wire 1 Y Add0~33 $end
$var wire 1 Z Add0~34_combout $end
$var wire 1 [ Add0~35 $end
$var wire 1 \ Add0~36_combout $end
$var wire 1 ] Add0~37 $end
$var wire 1 ^ Add0~39 $end
$var wire 1 _ Add0~40_combout $end
$var wire 1 ` Equal0~6_combout $end
$var wire 1 a Add0~38_combout $end
$var wire 1 b Equal0~5_combout $end
$var wire 1 c Add0~41 $end
$var wire 1 d Add0~43 $end
$var wire 1 e Add0~45 $end
$var wire 1 f Add0~46_combout $end
$var wire 1 g Equal0~7_combout $end
$var wire 1 h Add0~47 $end
$var wire 1 i Add0~48_combout $end
$var wire 1 j Add0~49 $end
$var wire 1 k Add0~50_combout $end
$var wire 1 l Add0~51 $end
$var wire 1 m Add0~52_combout $end
$var wire 1 n Add0~53 $end
$var wire 1 o Add0~54_combout $end
$var wire 1 p Equal0~8_combout $end
$var wire 1 q Add0~55 $end
$var wire 1 r Add0~56_combout $end
$var wire 1 s Add0~57 $end
$var wire 1 t Add0~59 $end
$var wire 1 u Add0~60_combout $end
$var wire 1 v Add0~61 $end
$var wire 1 w Add0~62_combout $end
$var wire 1 x Equal0~9_combout $end
$var wire 1 y Equal0~10_combout $end
$var wire 1 z clk_sig~0_combout $end
$var wire 1 { clk_sig~q $end
$var wire 1 | count [31] $end
$var wire 1 } count [30] $end
$var wire 1 ~ count [29] $end
$var wire 1 !! count [28] $end
$var wire 1 "! count [27] $end
$var wire 1 #! count [26] $end
$var wire 1 $! count [25] $end
$var wire 1 %! count [24] $end
$var wire 1 &! count [23] $end
$var wire 1 '! count [22] $end
$var wire 1 (! count [21] $end
$var wire 1 )! count [20] $end
$var wire 1 *! count [19] $end
$var wire 1 +! count [18] $end
$var wire 1 ,! count [17] $end
$var wire 1 -! count [16] $end
$var wire 1 .! count [15] $end
$var wire 1 /! count [14] $end
$var wire 1 0! count [13] $end
$var wire 1 1! count [12] $end
$var wire 1 2! count [11] $end
$var wire 1 3! count [10] $end
$var wire 1 4! count [9] $end
$var wire 1 5! count [8] $end
$var wire 1 6! count [7] $end
$var wire 1 7! count [6] $end
$var wire 1 8! count [5] $end
$var wire 1 9! count [4] $end
$var wire 1 :! count [3] $end
$var wire 1 ;! count [2] $end
$var wire 1 <! count [1] $end
$var wire 1 =! count [0] $end
$upscope $end
$upscope $end
$enddefinitions $end
#0
$dumpvars
0!
0"
x#
0$
1%
x&
1'
1(
1)
1*
0+
0,
0-
0.
0/
00
01
02
03
04
15
16
17
08
09
0:
0;
0<
1=
0>
1?
0@
0A
0B
0C
1D
0E
0F
1G
0H
0I
1J
0K
0L
0M
1N
0O
0P
1Q
0R
0S
1T
0U
0V
1W
0X
0Y
0Z
1[
0\
0]
1^
0_
1`
0a
1b
0c
1d
0e
0f
1g
1h
0i
0j
0k
1l
0m
0n
0o
1p
1q
0r
0s
1t
0u
0v
0w
1x
0y
0z
0{
0=!
0<!
0;!
0:!
09!
08!
07!
06!
05!
04!
03!
02!
01!
00!
0/!
0.!
0-!
0,!
0+!
0*!
0)!
0(!
0'!
0&!
0%!
0$!
0#!
0"!
0!!
0~
0}
0|
$end
#10000
1!
1;
1<
0#
1=!
1>
0*
1+
0=
19
#20000
0!
0;
0<
1#
#30000
1!
1;
1<
0#
0=!
1<!
0>
1*
0?
0+
1?
1+
1=
1@
09
0@
19
#40000
0!
0;
0<
1#
#50000
1!
1;
1<
0#
1=!
1>
0*
0?
0+
0=
1@
09
#60000
0!
0;
0<
1#
#70000
1!
1;
1<
0#
1;!
0=!
0<!
1A
0@
0>
1*
1?
1+
1B
0+
1=
0A
1@
19
1C
09
0B
0C
#80000
0!
0;
0<
1#
#90000
1!
1;
1<
0#
1=!
1>
0*
1+
0=
19
#100000
0!
0;
0<
1#
#110000
1!
1;
1<
0#
0=!
1<!
0>
1*
0?
0+
1?
1+
1=
1A
0@
09
0A
1@
19
1B
0B
1C
0C
#120000
0!
0;
0<
1#
#130000
1!
1;
1<
0#
1=!
1>
0*
0?
0+
0=
1A
0@
09
1B
1C
#140000
0!
0;
0<
1#
#150000
1!
1;
1<
0#
1:!
0;!
0=!
0<!
0D
0B
0A
1@
0>
1*
1?
1+
1E
0C
1D
1B
0+
1=
0@
19
0E
1C
09
#160000
0!
0;
0<
1#
#170000
1!
1;
1<
0#
1=!
1>
0*
1+
0=
19
#180000
0!
0;
0<
1#
#190000
1!
1;
1<
0#
0=!
1<!
14
0>
1*
0?
0+
18
1?
1+
1=
1@
09
1y
0@
19
1z
0C
0=
09
#200000
0!
0;
0<
1#
#210000
1!
1;
1<
0#
0:!
0<!
1{
0B
04
0+
0z
1:
1"
08
0y
1z
1=
#220000
0!
0;
0<
1#
#230000
1!
1;
1<
0#
1=!
1>
0*
1+
0=
19
#240000
0!
0;
0<
1#
#250000
1!
1;
1<
0#
0=!
1<!
0>
1*
0?
0+
1?
1+
1=
1@
09
0@
19
#260000
0!
0;
0<
1#
#270000
1!
1;
1<
0#
1=!
1>
0*
0?
0+
0=
1@
09
#280000
0!
0;
0<
1#
#290000
1!
1;
1<
0#
1;!
0=!
0<!
1A
0@
0>
1*
1?
1+
1B
0+
1=
0A
1@
19
1C
09
0B
0C
#300000
0!
0;
0<
1#
#310000
1!
1;
1<
0#
1=!
1>
0*
1+
0=
19
#320000
0!
0;
0<
1#
#330000
1!
1;
1<
0#
0=!
1<!
0>
1*
0?
0+
1?
1+
1=
1A
0@
09
0A
1@
19
1B
0B
1C
0C
#340000
0!
0;
0<
1#
#350000
1!
1;
1<
0#
1=!
1>
0*
0?
0+
0=
1A
0@
09
1B
1C
#360000
0!
0;
0<
1#
#370000
1!
1;
1<
0#
1:!
0;!
0=!
0<!
0D
0B
0A
1@
0>
1*
1?
1+
1E
0C
1D
1B
0+
1=
0@
19
0E
1C
09
#380000
0!
0;
0<
1#
#390000
1!
1;
1<
0#
1=!
1>
0*
1+
0=
19
#400000
0!
0;
0<
1#
#410000
1!
1;
1<
0#
0=!
1<!
14
0>
1*
0?
0+
18
1?
1+
1=
1@
09
1y
0@
19
0z
0C
0=
09
#420000
0!
0;
0<
1#
#430000
1!
1;
1<
0#
0:!
0<!
0{
0B
04
0+
1z
0:
0"
08
0y
0z
1=
#440000
0!
0;
0<
1#
#450000
1!
1;
1<
0#
1=!
1>
0*
1+
0=
19
#460000
0!
0;
0<
1#
#470000
1!
1;
1<
0#
0=!
1<!
0>
1*
0?
0+
1?
1+
1=
1@
09
0@
19
#480000
0!
0;
0<
1#
#490000
1!
1;
1<
0#
1=!
1>
0*
0?
0+
0=
1@
09
#500000
0!
0;
0<
1#
#510000
1!
1;
1<
0#
1;!
0=!
0<!
1A
0@
0>
1*
1?
1+
1B
0+
1=
0A
1@
19
1C
09
0B
0C
#520000
0!
0;
0<
1#
#530000
1!
1;
1<
0#
1=!
1>
0*
1+
0=
19
#540000
0!
0;
0<
1#
#550000
1!
1;
1<
0#
0=!
1<!
0>
1*
0?
0+
1?
1+
1=
1A
0@
09
0A
1@
19
1B
0B
1C
0C
#560000
0!
0;
0<
1#
#570000
1!
1;
1<
0#
1=!
1>
0*
0?
0+
0=
1A
0@
09
1B
1C
#580000
0!
0;
0<
1#
#590000
1!
1;
1<
0#
1:!
0;!
0=!
0<!
0D
0B
0A
1@
0>
1*
1?
1+
1E
0C
1D
1B
0+
1=
0@
19
0E
1C
09
#600000
0!
0;
0<
1#
#610000
1!
1;
1<
0#
1=!
1>
0*
1+
0=
19
#620000
0!
0;
0<
1#
#630000
1!
1;
1<
0#
0=!
1<!
14
0>
1*
0?
0+
18
1?
1+
1=
1@
09
1y
0@
19
1z
0C
0=
09
#640000
0!
0;
0<
1#
#650000
1!
1;
1<
0#
0:!
0<!
1{
0B
04
0+
0z
1:
1"
08
0y
1z
1=
#660000
0!
0;
0<
1#
#670000
1!
1;
1<
0#
1=!
1>
0*
1+
0=
19
#680000
0!
0;
0<
1#
#690000
1!
1;
1<
0#
0=!
1<!
0>
1*
0?
0+
1?
1+
1=
1@
09
0@
19
#700000
0!
0;
0<
1#
#710000
1!
1;
1<
0#
1=!
1>
0*
0?
0+
0=
1@
09
#720000
0!
0;
0<
1#
#730000
1!
1;
1<
0#
1;!
0=!
0<!
1A
0@
0>
1*
1?
1+
1B
0+
1=
0A
1@
19
1C
09
0B
0C
#740000
0!
0;
0<
1#
#750000
1!
1;
1<
0#
1=!
1>
0*
1+
0=
19
#760000
0!
0;
0<
1#
#770000
1!
1;
1<
0#
0=!
1<!
0>
1*
0?
0+
1?
1+
1=
1A
0@
09
0A
1@
19
1B
0B
1C
0C
#780000
0!
0;
0<
1#
#790000
1!
1;
1<
0#
1=!
1>
0*
0?
0+
0=
1A
0@
09
1B
1C
#800000
0!
0;
0<
1#
#810000
1!
1;
1<
0#
1:!
0;!
0=!
0<!
0D
0B
0A
1@
0>
1*
1?
1+
1E
0C
1D
1B
0+
1=
0@
19
0E
1C
09
#820000
0!
0;
0<
1#
#830000
1!
1;
1<
0#
1=!
1>
0*
1+
0=
19
#840000
0!
0;
0<
1#
#850000
1!
1;
1<
0#
0=!
1<!
14
0>
1*
0?
0+
18
1?
1+
1=
1@
09
1y
0@
19
0z
0C
0=
09
#860000
0!
0;
0<
1#
#870000
1!
1;
1<
0#
0:!
0<!
0{
0B
04
0+
1z
0:
0"
08
0y
0z
1=
#880000
0!
0;
0<
1#
#890000
1!
1;
1<
0#
1=!
1>
0*
1+
0=
19
#900000
0!
0;
0<
1#
#910000
1!
1;
1<
0#
0=!
1<!
0>
1*
0?
0+
1?
1+
1=
1@
09
0@
19
#920000
0!
0;
0<
1#
#930000
1!
1;
1<
0#
1=!
1>
0*
0?
0+
0=
1@
09
#940000
0!
0;
0<
1#
#950000
1!
1;
1<
0#
1;!
0=!
0<!
1A
0@
0>
1*
1?
1+
1B
0+
1=
0A
1@
19
1C
09
0B
0C
#960000
0!
0;
0<
1#
#970000
1!
1;
1<
0#
1=!
1>
0*
1+
0=
19
#980000
0!
0;
0<
1#
#990000
1!
1;
1<
0#
0=!
1<!
0>
1*
0?
0+
1?
1+
1=
1A
0@
09
0A
1@
19
1B
0B
1C
0C
